%YAML 1.1
%TAG !u! tag:unity3d.com,2011:
--- !u!1 &4817728084380013337
GameObject:
  m_ObjectHideFlags: 0
  m_CorrespondingSourceObject: {fileID: 0}
  m_PrefabInstance: {fileID: 0}
  m_PrefabAsset: {fileID: 0}
  serializedVersion: 6
  m_Component:
  - component: {fileID: 3723195960513240427}
  - component: {fileID: 5575491395263619404}
  - component: {fileID: 6213789789729876877}
  m_Layer: 31
  m_Name: Layer1
  m_TagString: Untagged
  m_Icon: {fileID: 0}
  m_NavMeshLayer: 0
  m_StaticEditorFlags: 0
  m_IsActive: 1
--- !u!4 &3723195960513240427
Transform:
  m_ObjectHideFlags: 0
  m_CorrespondingSourceObject: {fileID: 0}
  m_PrefabInstance: {fileID: 0}
  m_PrefabAsset: {fileID: 0}
  m_GameObject: {fileID: 4817728084380013337}
  m_LocalRotation: {x: -0, y: -0, z: -0, w: 1}
  m_LocalPosition: {x: 0, y: 0, z: 0}
  m_LocalScale: {x: 1, y: 1, z: 1}
  m_Children: []
  m_Father: {fileID: 8619509748806162062}
  m_RootOrder: 0
  m_LocalEulerAnglesHint: {x: 0, y: 0, z: 0}
--- !u!1839735485 &5575491395263619404
Tilemap:
  m_ObjectHideFlags: 0
  m_CorrespondingSourceObject: {fileID: 0}
  m_PrefabInstance: {fileID: 0}
  m_PrefabAsset: {fileID: 0}
  m_GameObject: {fileID: 4817728084380013337}
  m_Enabled: 1
  m_Tiles:
  - first: {x: -1, y: -6, z: 0}
    second:
      serializedVersion: 2
      m_TileIndex: 42
      m_TileSpriteIndex: 42
      m_TileMatrixIndex: 0
      m_TileColorIndex: 0
      m_TileObjectToInstantiateIndex: 65535
      m_AllTileFlags: 1073741825
  - first: {x: -1, y: -5, z: 0}
    second:
      serializedVersion: 2
      m_TileIndex: 35
      m_TileSpriteIndex: 35
      m_TileMatrixIndex: 0
      m_TileColorIndex: 0
      m_TileObjectToInstantiateIndex: 65535
      m_AllTileFlags: 1073741825
  - first: {x: 0, y: -5, z: 0}
    second:
      serializedVersion: 2
      m_TileIndex: 36
      m_TileSpriteIndex: 36
      m_TileMatrixIndex: 0
      m_TileColorIndex: 0
      m_TileObjectToInstantiateIndex: 65535
      m_AllTileFlags: 1073741825
  - first: {x: 1, y: -5, z: 0}
    second:
      serializedVersion: 2
      m_TileIndex: 37
      m_TileSpriteIndex: 37
      m_TileMatrixIndex: 0
      m_TileColorIndex: 0
      m_TileObjectToInstantiateIndex: 65535
      m_AllTileFlags: 1073741825
  - first: {x: 2, y: -5, z: 0}
    second:
      serializedVersion: 2
      m_TileIndex: 38
      m_TileSpriteIndex: 38
      m_TileMatrixIndex: 0
      m_TileColorIndex: 0
      m_TileObjectToInstantiateIndex: 65535
      m_AllTileFlags: 1073741825
  - first: {x: 3, y: -5, z: 0}
    second:
      serializedVersion: 2
      m_TileIndex: 39
      m_TileSpriteIndex: 39
      m_TileMatrixIndex: 0
      m_TileColorIndex: 0
      m_TileObjectToInstantiateIndex: 65535
      m_AllTileFlags: 1073741825
  - first: {x: 4, y: -5, z: 0}
    second:
      serializedVersion: 2
      m_TileIndex: 40
      m_TileSpriteIndex: 40
      m_TileMatrixIndex: 0
      m_TileColorIndex: 0
      m_TileObjectToInstantiateIndex: 65535
      m_AllTileFlags: 1073741825
  - first: {x: 5, y: -5, z: 0}
    second:
      serializedVersion: 2
      m_TileIndex: 41
      m_TileSpriteIndex: 41
      m_TileMatrixIndex: 0
      m_TileColorIndex: 0
      m_TileObjectToInstantiateIndex: 65535
      m_AllTileFlags: 1073741825
  - first: {x: -1, y: -4, z: 0}
    second:
      serializedVersion: 2
      m_TileIndex: 28
      m_TileSpriteIndex: 28
      m_TileMatrixIndex: 0
      m_TileColorIndex: 0
      m_TileObjectToInstantiateIndex: 65535
      m_AllTileFlags: 1073741825
  - first: {x: 0, y: -4, z: 0}
    second:
      serializedVersion: 2
      m_TileIndex: 29
      m_TileSpriteIndex: 29
      m_TileMatrixIndex: 0
      m_TileColorIndex: 0
      m_TileObjectToInstantiateIndex: 65535
      m_AllTileFlags: 1073741825
  - first: {x: 1, y: -4, z: 0}
    second:
      serializedVersion: 2
      m_TileIndex: 30
      m_TileSpriteIndex: 30
      m_TileMatrixIndex: 0
      m_TileColorIndex: 0
      m_TileObjectToInstantiateIndex: 65535
      m_AllTileFlags: 1073741825
  - first: {x: 2, y: -4, z: 0}
    second:
      serializedVersion: 2
      m_TileIndex: 31
      m_TileSpriteIndex: 31
      m_TileMatrixIndex: 0
      m_TileColorIndex: 0
      m_TileObjectToInstantiateIndex: 65535
      m_AllTileFlags: 1073741825
  - first: {x: 3, y: -4, z: 0}
    second:
      serializedVersion: 2
      m_TileIndex: 32
      m_TileSpriteIndex: 32
      m_TileMatrixIndex: 0
      m_TileColorIndex: 0
      m_TileObjectToInstantiateIndex: 65535
      m_AllTileFlags: 1073741825
  - first: {x: 4, y: -4, z: 0}
    second:
      serializedVersion: 2
      m_TileIndex: 33
      m_TileSpriteIndex: 33
      m_TileMatrixIndex: 0
      m_TileColorIndex: 0
      m_TileObjectToInstantiateIndex: 65535
      m_AllTileFlags: 1073741825
  - first: {x: 5, y: -4, z: 0}
    second:
      serializedVersion: 2
      m_TileIndex: 34
      m_TileSpriteIndex: 34
      m_TileMatrixIndex: 0
      m_TileColorIndex: 0
      m_TileObjectToInstantiateIndex: 65535
      m_AllTileFlags: 1073741825
  - first: {x: -1, y: -3, z: 0}
    second:
      serializedVersion: 2
      m_TileIndex: 21
      m_TileSpriteIndex: 21
      m_TileMatrixIndex: 0
      m_TileColorIndex: 0
      m_TileObjectToInstantiateIndex: 65535
      m_AllTileFlags: 1073741825
  - first: {x: 0, y: -3, z: 0}
    second:
      serializedVersion: 2
      m_TileIndex: 22
      m_TileSpriteIndex: 22
      m_TileMatrixIndex: 0
      m_TileColorIndex: 0
      m_TileObjectToInstantiateIndex: 65535
      m_AllTileFlags: 1073741825
  - first: {x: 1, y: -3, z: 0}
    second:
      serializedVersion: 2
      m_TileIndex: 23
      m_TileSpriteIndex: 23
      m_TileMatrixIndex: 0
      m_TileColorIndex: 0
      m_TileObjectToInstantiateIndex: 65535
      m_AllTileFlags: 1073741825
  - first: {x: 2, y: -3, z: 0}
    second:
      serializedVersion: 2
      m_TileIndex: 24
      m_TileSpriteIndex: 24
      m_TileMatrixIndex: 0
      m_TileColorIndex: 0
      m_TileObjectToInstantiateIndex: 65535
      m_AllTileFlags: 1073741825
  - first: {x: 3, y: -3, z: 0}
    second:
      serializedVersion: 2
      m_TileIndex: 25
      m_TileSpriteIndex: 25
      m_TileMatrixIndex: 0
      m_TileColorIndex: 0
      m_TileObjectToInstantiateIndex: 65535
      m_AllTileFlags: 1073741825
  - first: {x: 4, y: -3, z: 0}
    second:
      serializedVersion: 2
      m_TileIndex: 26
      m_TileSpriteIndex: 26
      m_TileMatrixIndex: 0
      m_TileColorIndex: 0
      m_TileObjectToInstantiateIndex: 65535
      m_AllTileFlags: 1073741825
  - first: {x: 5, y: -3, z: 0}
    second:
      serializedVersion: 2
      m_TileIndex: 27
      m_TileSpriteIndex: 27
      m_TileMatrixIndex: 0
      m_TileColorIndex: 0
      m_TileObjectToInstantiateIndex: 65535
      m_AllTileFlags: 1073741825
  - first: {x: -1, y: -2, z: 0}
    second:
      serializedVersion: 2
      m_TileIndex: 14
      m_TileSpriteIndex: 14
      m_TileMatrixIndex: 0
      m_TileColorIndex: 0
      m_TileObjectToInstantiateIndex: 65535
      m_AllTileFlags: 1073741825
  - first: {x: 0, y: -2, z: 0}
    second:
      serializedVersion: 2
      m_TileIndex: 15
      m_TileSpriteIndex: 15
      m_TileMatrixIndex: 0
      m_TileColorIndex: 0
      m_TileObjectToInstantiateIndex: 65535
      m_AllTileFlags: 1073741825
  - first: {x: 1, y: -2, z: 0}
    second:
      serializedVersion: 2
      m_TileIndex: 16
      m_TileSpriteIndex: 16
      m_TileMatrixIndex: 0
      m_TileColorIndex: 0
      m_TileObjectToInstantiateIndex: 65535
      m_AllTileFlags: 1073741825
  - first: {x: 2, y: -2, z: 0}
    second:
      serializedVersion: 2
      m_TileIndex: 17
      m_TileSpriteIndex: 17
      m_TileMatrixIndex: 0
      m_TileColorIndex: 0
      m_TileObjectToInstantiateIndex: 65535
      m_AllTileFlags: 1073741825
  - first: {x: 3, y: -2, z: 0}
    second:
      serializedVersion: 2
      m_TileIndex: 18
      m_TileSpriteIndex: 18
      m_TileMatrixIndex: 0
      m_TileColorIndex: 0
      m_TileObjectToInstantiateIndex: 65535
      m_AllTileFlags: 1073741825
  - first: {x: 4, y: -2, z: 0}
    second:
      serializedVersion: 2
      m_TileIndex: 19
      m_TileSpriteIndex: 19
      m_TileMatrixIndex: 0
      m_TileColorIndex: 0
      m_TileObjectToInstantiateIndex: 65535
      m_AllTileFlags: 1073741825
  - first: {x: 5, y: -2, z: 0}
    second:
      serializedVersion: 2
      m_TileIndex: 20
      m_TileSpriteIndex: 20
      m_TileMatrixIndex: 0
      m_TileColorIndex: 0
      m_TileObjectToInstantiateIndex: 65535
      m_AllTileFlags: 1073741825
  - first: {x: -1, y: -1, z: 0}
    second:
      serializedVersion: 2
      m_TileIndex: 7
      m_TileSpriteIndex: 7
      m_TileMatrixIndex: 0
      m_TileColorIndex: 0
      m_TileObjectToInstantiateIndex: 65535
      m_AllTileFlags: 1073741825
  - first: {x: 0, y: -1, z: 0}
    second:
      serializedVersion: 2
      m_TileIndex: 8
      m_TileSpriteIndex: 8
      m_TileMatrixIndex: 0
      m_TileColorIndex: 0
      m_TileObjectToInstantiateIndex: 65535
      m_AllTileFlags: 1073741825
  - first: {x: 1, y: -1, z: 0}
    second:
      serializedVersion: 2
      m_TileIndex: 9
      m_TileSpriteIndex: 9
      m_TileMatrixIndex: 0
      m_TileColorIndex: 0
      m_TileObjectToInstantiateIndex: 65535
      m_AllTileFlags: 1073741825
  - first: {x: 2, y: -1, z: 0}
    second:
      serializedVersion: 2
      m_TileIndex: 10
      m_TileSpriteIndex: 10
      m_TileMatrixIndex: 0
      m_TileColorIndex: 0
      m_TileObjectToInstantiateIndex: 65535
      m_AllTileFlags: 1073741825
  - first: {x: 3, y: -1, z: 0}
    second:
      serializedVersion: 2
      m_TileIndex: 11
      m_TileSpriteIndex: 11
      m_TileMatrixIndex: 0
      m_TileColorIndex: 0
      m_TileObjectToInstantiateIndex: 65535
      m_AllTileFlags: 1073741825
  - first: {x: 4, y: -1, z: 0}
    second:
      serializedVersion: 2
      m_TileIndex: 12
      m_TileSpriteIndex: 12
      m_TileMatrixIndex: 0
      m_TileColorIndex: 0
      m_TileObjectToInstantiateIndex: 65535
      m_AllTileFlags: 1073741825
  - first: {x: 5, y: -1, z: 0}
    second:
      serializedVersion: 2
      m_TileIndex: 13
      m_TileSpriteIndex: 13
      m_TileMatrixIndex: 0
      m_TileColorIndex: 0
      m_TileObjectToInstantiateIndex: 65535
      m_AllTileFlags: 1073741825
  - first: {x: -1, y: 0, z: 0}
    second:
      serializedVersion: 2
      m_TileIndex: 0
      m_TileSpriteIndex: 0
      m_TileMatrixIndex: 0
      m_TileColorIndex: 0
      m_TileObjectToInstantiateIndex: 65535
      m_AllTileFlags: 1073741825
  - first: {x: 0, y: 0, z: 0}
    second:
      serializedVersion: 2
      m_TileIndex: 1
      m_TileSpriteIndex: 1
      m_TileMatrixIndex: 0
      m_TileColorIndex: 0
      m_TileObjectToInstantiateIndex: 65535
      m_AllTileFlags: 1073741825
  - first: {x: 1, y: 0, z: 0}
    second:
      serializedVersion: 2
      m_TileIndex: 2
      m_TileSpriteIndex: 2
      m_TileMatrixIndex: 0
      m_TileColorIndex: 0
      m_TileObjectToInstantiateIndex: 65535
      m_AllTileFlags: 1073741825
  - first: {x: 2, y: 0, z: 0}
    second:
      serializedVersion: 2
      m_TileIndex: 3
      m_TileSpriteIndex: 3
      m_TileMatrixIndex: 0
      m_TileColorIndex: 0
      m_TileObjectToInstantiateIndex: 65535
      m_AllTileFlags: 1073741825
  - first: {x: 3, y: 0, z: 0}
    second:
      serializedVersion: 2
      m_TileIndex: 4
      m_TileSpriteIndex: 4
      m_TileMatrixIndex: 0
      m_TileColorIndex: 0
      m_TileObjectToInstantiateIndex: 65535
      m_AllTileFlags: 1073741825
  - first: {x: 4, y: 0, z: 0}
    second:
      serializedVersion: 2
      m_TileIndex: 5
      m_TileSpriteIndex: 5
      m_TileMatrixIndex: 0
      m_TileColorIndex: 0
      m_TileObjectToInstantiateIndex: 65535
      m_AllTileFlags: 1073741825
  - first: {x: 5, y: 0, z: 0}
    second:
      serializedVersion: 2
      m_TileIndex: 6
      m_TileSpriteIndex: 6
      m_TileMatrixIndex: 0
      m_TileColorIndex: 0
      m_TileObjectToInstantiateIndex: 65535
      m_AllTileFlags: 1073741825
  m_AnimatedTiles: {}
  m_TileAssetArray:
  - m_RefCount: 1
    m_Data: {fileID: 11400000, guid: 76411b6a01ebe8a4b8db0fd74bd76c01, type: 2}
  - m_RefCount: 1
    m_Data: {fileID: 11400000, guid: 4ae397e2543e86c46946703b871d9dea, type: 2}
  - m_RefCount: 1
    m_Data: {fileID: 11400000, guid: ef95113db0cc74f4f8bf8c17ae719d4c, type: 2}
  - m_RefCount: 1
    m_Data: {fileID: 11400000, guid: 1d1c6903e38816649b26ca6eed1f6b94, type: 2}
  - m_RefCount: 1
    m_Data: {fileID: 11400000, guid: 07431e6c2f3207c4cbd0c0d71b3cdcb2, type: 2}
  - m_RefCount: 1
    m_Data: {fileID: 11400000, guid: 90e39a9e22ed47541823e62cb0ce9ce9, type: 2}
  - m_RefCount: 1
    m_Data: {fileID: 11400000, guid: b88d703055e17444198740416a5a7b5d, type: 2}
  - m_RefCount: 1
    m_Data: {fileID: 11400000, guid: 535275a28da8df8449eefa098f350b98, type: 2}
  - m_RefCount: 1
    m_Data: {fileID: 11400000, guid: 7f88d8ba3b63ceb4b80f1452352f4742, type: 2}
  - m_RefCount: 1
    m_Data: {fileID: 11400000, guid: 81bc66ba7ee0e1043bab394f26b0870c, type: 2}
  - m_RefCount: 1
    m_Data: {fileID: 11400000, guid: 8055de7950eff71499ed0c0442de0fa6, type: 2}
  - m_RefCount: 1
    m_Data: {fileID: 11400000, guid: 220e53a7411eeaa4bb6d1651d9360ad6, type: 2}
  - m_RefCount: 1
    m_Data: {fileID: 11400000, guid: 275f7974fdc95a34eab12db16c776231, type: 2}
  - m_RefCount: 1
    m_Data: {fileID: 11400000, guid: d730d20e171854d45a4210319eb44072, type: 2}
  - m_RefCount: 1
    m_Data: {fileID: 11400000, guid: fb59fe3252f506941a5d2c80270c0641, type: 2}
  - m_RefCount: 1
    m_Data: {fileID: 11400000, guid: 240e7dfc672b03c439a5df1640c4c8e4, type: 2}
  - m_RefCount: 1
    m_Data: {fileID: 11400000, guid: e954100cba4a24e4ba7e384caec01f43, type: 2}
  - m_RefCount: 1
    m_Data: {fileID: 11400000, guid: d95cc68b411853c4698454328dacf9b6, type: 2}
  - m_RefCount: 1
    m_Data: {fileID: 11400000, guid: 1b327b183369a784e83c8f8a4b0cf364, type: 2}
  - m_RefCount: 1
    m_Data: {fileID: 11400000, guid: d9df5bad5bb21b843a308ede7e9cd2d5, type: 2}
  - m_RefCount: 1
    m_Data: {fileID: 11400000, guid: 112c7c70d9dee5e47a5f086a1f639205, type: 2}
  - m_RefCount: 1
    m_Data: {fileID: 11400000, guid: 3a49e648d0d5e45429498e41500775c9, type: 2}
  - m_RefCount: 1
    m_Data: {fileID: 11400000, guid: 88119471a1489d14f835467542093a6c, type: 2}
  - m_RefCount: 1
    m_Data: {fileID: 11400000, guid: 6dc92429277e63c4497c319a37c495ff, type: 2}
  - m_RefCount: 1
    m_Data: {fileID: 11400000, guid: f8e2ebca0e0529549805c2f697b7f0bb, type: 2}
  - m_RefCount: 1
    m_Data: {fileID: 11400000, guid: 9796dafc9f29b4148808e5100a3adeba, type: 2}
  - m_RefCount: 1
    m_Data: {fileID: 11400000, guid: e6a5b806fdf1e774796e90973ba7f837, type: 2}
  - m_RefCount: 1
    m_Data: {fileID: 11400000, guid: 66cbd7acc50b4374797bb76dfa85657c, type: 2}
  - m_RefCount: 1
    m_Data: {fileID: 11400000, guid: aa29e7873d223af41bd7b565f5081e90, type: 2}
  - m_RefCount: 1
    m_Data: {fileID: 11400000, guid: bf599d1035ffdde4b8b5957e5c946031, type: 2}
  - m_RefCount: 1
    m_Data: {fileID: 11400000, guid: bc6e42ccaf592864c9a666cca0e766cf, type: 2}
  - m_RefCount: 1
    m_Data: {fileID: 11400000, guid: 59debc5159c99004883ec031908c0e50, type: 2}
  - m_RefCount: 1
    m_Data: {fileID: 11400000, guid: c3d55c8de0a417345b1fe5d8ffbefb59, type: 2}
  - m_RefCount: 1
    m_Data: {fileID: 11400000, guid: 1c82e734e1ac5de448457bef672ce782, type: 2}
  - m_RefCount: 1
    m_Data: {fileID: 11400000, guid: 159a359527301394eb20aae0aef40268, type: 2}
  - m_RefCount: 1
    m_Data: {fileID: 11400000, guid: 909bf15d07c47a0459ad0b2145a5826d, type: 2}
  - m_RefCount: 1
    m_Data: {fileID: 11400000, guid: 66452722916df6c41a16c8f448bd5369, type: 2}
  - m_RefCount: 1
    m_Data: {fileID: 11400000, guid: d46d897d4f14bf647baee4f32d7af8b7, type: 2}
  - m_RefCount: 1
    m_Data: {fileID: 11400000, guid: 44673346b076aee42ab9c7f4e13a0919, type: 2}
  - m_RefCount: 1
    m_Data: {fileID: 11400000, guid: d3a99d189e001ba489621874f2f7c829, type: 2}
  - m_RefCount: 1
    m_Data: {fileID: 11400000, guid: bd39c0f1300d6824aae0efb1f3595f58, type: 2}
  - m_RefCount: 1
    m_Data: {fileID: 11400000, guid: 6255ac653843c3f40bf0405b97eb28aa, type: 2}
  - m_RefCount: 1
    m_Data: {fileID: 11400000, guid: 910aa60acd50f804abaefc135ebe63dd, type: 2}
  m_TileSpriteArray:
  - m_RefCount: 1
    m_Data: {fileID: 6530179738444782934, guid: 2f6dcb6d8c6a34e4faaf7bfa5f1afbe0,
      type: 3}
  - m_RefCount: 1
    m_Data: {fileID: 613435604629981061, guid: 2f6dcb6d8c6a34e4faaf7bfa5f1afbe0, type: 3}
  - m_RefCount: 1
    m_Data: {fileID: -3656531271222932061, guid: 2f6dcb6d8c6a34e4faaf7bfa5f1afbe0,
      type: 3}
  - m_RefCount: 1
    m_Data: {fileID: 3930011312167392660, guid: 2f6dcb6d8c6a34e4faaf7bfa5f1afbe0,
      type: 3}
  - m_RefCount: 1
    m_Data: {fileID: -96796154962138083, guid: 2f6dcb6d8c6a34e4faaf7bfa5f1afbe0, type: 3}
  - m_RefCount: 1
    m_Data: {fileID: -7054820123952135176, guid: 2f6dcb6d8c6a34e4faaf7bfa5f1afbe0,
      type: 3}
  - m_RefCount: 1
    m_Data: {fileID: 8636805145482191278, guid: 2f6dcb6d8c6a34e4faaf7bfa5f1afbe0,
      type: 3}
  - m_RefCount: 1
    m_Data: {fileID: -2218698658706304759, guid: 2f6dcb6d8c6a34e4faaf7bfa5f1afbe0,
      type: 3}
  - m_RefCount: 1
    m_Data: {fileID: 2562169664635839239, guid: 2f6dcb6d8c6a34e4faaf7bfa5f1afbe0,
      type: 3}
  - m_RefCount: 1
    m_Data: {fileID: -4946619765975422720, guid: 2f6dcb6d8c6a34e4faaf7bfa5f1afbe0,
      type: 3}
  - m_RefCount: 1
    m_Data: {fileID: 662046916731068474, guid: 2f6dcb6d8c6a34e4faaf7bfa5f1afbe0, type: 3}
  - m_RefCount: 1
    m_Data: {fileID: -832198905909771304, guid: 2f6dcb6d8c6a34e4faaf7bfa5f1afbe0,
      type: 3}
  - m_RefCount: 1
    m_Data: {fileID: -863169582964885348, guid: 2f6dcb6d8c6a34e4faaf7bfa5f1afbe0,
      type: 3}
  - m_RefCount: 1
    m_Data: {fileID: -8302254863492273045, guid: 2f6dcb6d8c6a34e4faaf7bfa5f1afbe0,
      type: 3}
  - m_RefCount: 1
    m_Data: {fileID: 4372381551759688375, guid: 2f6dcb6d8c6a34e4faaf7bfa5f1afbe0,
      type: 3}
  - m_RefCount: 1
    m_Data: {fileID: 2281915828476810391, guid: 2f6dcb6d8c6a34e4faaf7bfa5f1afbe0,
      type: 3}
  - m_RefCount: 1
    m_Data: {fileID: -4294464135343857242, guid: 2f6dcb6d8c6a34e4faaf7bfa5f1afbe0,
      type: 3}
  - m_RefCount: 1
    m_Data: {fileID: 5182346603733836655, guid: 2f6dcb6d8c6a34e4faaf7bfa5f1afbe0,
      type: 3}
  - m_RefCount: 1
    m_Data: {fileID: -1308681137950721158, guid: 2f6dcb6d8c6a34e4faaf7bfa5f1afbe0,
      type: 3}
  - m_RefCount: 1
    m_Data: {fileID: 5126698597468343190, guid: 2f6dcb6d8c6a34e4faaf7bfa5f1afbe0,
      type: 3}
  - m_RefCount: 1
    m_Data: {fileID: 40226137156273884, guid: 2f6dcb6d8c6a34e4faaf7bfa5f1afbe0, type: 3}
  - m_RefCount: 1
    m_Data: {fileID: 85919881110890362, guid: 2f6dcb6d8c6a34e4faaf7bfa5f1afbe0, type: 3}
  - m_RefCount: 1
    m_Data: {fileID: -5633746423298546789, guid: 2f6dcb6d8c6a34e4faaf7bfa5f1afbe0,
      type: 3}
  - m_RefCount: 1
    m_Data: {fileID: -2215395698826879309, guid: 2f6dcb6d8c6a34e4faaf7bfa5f1afbe0,
      type: 3}
  - m_RefCount: 1
    m_Data: {fileID: -1890683709196995980, guid: 2f6dcb6d8c6a34e4faaf7bfa5f1afbe0,
      type: 3}
  - m_RefCount: 1
    m_Data: {fileID: -793853672561180757, guid: 2f6dcb6d8c6a34e4faaf7bfa5f1afbe0,
      type: 3}
  - m_RefCount: 1
    m_Data: {fileID: -3325237663468503850, guid: 2f6dcb6d8c6a34e4faaf7bfa5f1afbe0,
      type: 3}
  - m_RefCount: 1
    m_Data: {fileID: -7783043263158481598, guid: 2f6dcb6d8c6a34e4faaf7bfa5f1afbe0,
      type: 3}
  - m_RefCount: 1
    m_Data: {fileID: -6411942188729546641, guid: 2f6dcb6d8c6a34e4faaf7bfa5f1afbe0,
      type: 3}
  - m_RefCount: 1
    m_Data: {fileID: 2616279434124315298, guid: 2f6dcb6d8c6a34e4faaf7bfa5f1afbe0,
      type: 3}
  - m_RefCount: 1
    m_Data: {fileID: -8625958514855940660, guid: 2f6dcb6d8c6a34e4faaf7bfa5f1afbe0,
      type: 3}
  - m_RefCount: 1
    m_Data: {fileID: -6178753182053978589, guid: 2f6dcb6d8c6a34e4faaf7bfa5f1afbe0,
      type: 3}
  - m_RefCount: 1
    m_Data: {fileID: 1410106590548902557, guid: 2f6dcb6d8c6a34e4faaf7bfa5f1afbe0,
      type: 3}
  - m_RefCount: 1
    m_Data: {fileID: -4618995592081637678, guid: 2f6dcb6d8c6a34e4faaf7bfa5f1afbe0,
      type: 3}
  - m_RefCount: 1
    m_Data: {fileID: 7473165060587517607, guid: 2f6dcb6d8c6a34e4faaf7bfa5f1afbe0,
      type: 3}
  - m_RefCount: 1
    m_Data: {fileID: -5117276836014666505, guid: 2f6dcb6d8c6a34e4faaf7bfa5f1afbe0,
      type: 3}
  - m_RefCount: 1
    m_Data: {fileID: 3822524082316067585, guid: 2f6dcb6d8c6a34e4faaf7bfa5f1afbe0,
      type: 3}
  - m_RefCount: 1
    m_Data: {fileID: 7002634308644229031, guid: 2f6dcb6d8c6a34e4faaf7bfa5f1afbe0,
      type: 3}
  - m_RefCount: 1
    m_Data: {fileID: -5679681372999991991, guid: 2f6dcb6d8c6a34e4faaf7bfa5f1afbe0,
      type: 3}
  - m_RefCount: 1
    m_Data: {fileID: 1949730731670058941, guid: 2f6dcb6d8c6a34e4faaf7bfa5f1afbe0,
      type: 3}
  - m_RefCount: 1
    m_Data: {fileID: -1888837539432032468, guid: 2f6dcb6d8c6a34e4faaf7bfa5f1afbe0,
      type: 3}
  - m_RefCount: 1
    m_Data: {fileID: -3627854407871609761, guid: 2f6dcb6d8c6a34e4faaf7bfa5f1afbe0,
      type: 3}
  - m_RefCount: 1
    m_Data: {fileID: -1796502737815246115, guid: 2f6dcb6d8c6a34e4faaf7bfa5f1afbe0,
      type: 3}
  m_TileMatrixArray:
  - m_RefCount: 43
    m_Data:
      e00: 1
      e01: 0
      e02: 0
      e03: 0
      e10: 0
      e11: 1
      e12: 0
      e13: 0
      e20: 0
      e21: 0
      e22: 1
      e23: 0
      e30: 0
      e31: 0
      e32: 0
      e33: 1
  m_TileColorArray:
  - m_RefCount: 43
    m_Data: {r: 1, g: 1, b: 1, a: 1}
  m_TileObjectToInstantiateArray: []
  m_AnimationFrameRate: 1
  m_Color: {r: 1, g: 1, b: 1, a: 1}
  m_Origin: {x: -1, y: -6, z: 0}
  m_Size: {x: 7, y: 7, z: 1}
  m_TileAnchor: {x: 0.5, y: 0.5, z: 0}
  m_TileOrientation: 0
  m_TileOrientationMatrix:
    e00: 1
    e01: 0
    e02: 0
    e03: 0
    e10: 0
    e11: 1
    e12: 0
    e13: 0
    e20: 0
    e21: 0
    e22: 1
    e23: 0
    e30: 0
    e31: 0
    e32: 0
    e33: 1
--- !u!483693784 &6213789789729876877
TilemapRenderer:
  m_ObjectHideFlags: 0
  m_CorrespondingSourceObject: {fileID: 0}
  m_PrefabInstance: {fileID: 0}
  m_PrefabAsset: {fileID: 0}
  m_GameObject: {fileID: 4817728084380013337}
  m_Enabled: 0
  m_CastShadows: 0
  m_ReceiveShadows: 0
  m_DynamicOccludee: 0
  m_MotionVectors: 1
  m_LightProbeUsage: 0
  m_ReflectionProbeUsage: 0
  m_RayTracingMode: 0
  m_RenderingLayerMask: 1
  m_RendererPriority: 0
  m_Materials:
  - {fileID: 10754, guid: 0000000000000000f000000000000000, type: 0}
  m_StaticBatchInfo:
    firstSubMesh: 0
    subMeshCount: 0
  m_StaticBatchRoot: {fileID: 0}
  m_ProbeAnchor: {fileID: 0}
  m_LightProbeVolumeOverride: {fileID: 0}
  m_ScaleInLightmap: 1
  m_ReceiveGI: 1
  m_PreserveUVs: 0
  m_IgnoreNormalsForChartDetection: 0
  m_ImportantGI: 0
  m_StitchLightmapSeams: 1
  m_SelectedEditorRenderState: 0
  m_MinimumChartSize: 4
  m_AutoUVMaxDistance: 0.5
  m_AutoUVMaxAngle: 89
  m_LightmapParameters: {fileID: 0}
  m_SortingLayerID: 0
  m_SortingLayer: 0
  m_SortingOrder: 0
  m_ChunkSize: {x: 32, y: 32, z: 32}
  m_ChunkCullingBounds: {x: 0, y: 0, z: 0}
  m_MaxChunkCount: 16
  m_MaxFrameAge: 16
  m_SortOrder: 0
  m_Mode: 0
  m_DetectChunkCullingBounds: 0
  m_MaskInteraction: 0
--- !u!1 &7919529504181554283
GameObject:
  m_ObjectHideFlags: 0
  m_CorrespondingSourceObject: {fileID: 0}
  m_PrefabInstance: {fileID: 0}
  m_PrefabAsset: {fileID: 0}
  serializedVersion: 6
  m_Component:
  - component: {fileID: 8619509748806162062}
  - component: {fileID: 1783375737126093152}
  m_Layer: 31
  m_Name: Cave scenery
  m_TagString: Untagged
  m_Icon: {fileID: 0}
  m_NavMeshLayer: 0
  m_StaticEditorFlags: 0
  m_IsActive: 1
--- !u!4 &8619509748806162062
Transform:
  m_ObjectHideFlags: 0
  m_CorrespondingSourceObject: {fileID: 0}
  m_PrefabInstance: {fileID: 0}
  m_PrefabAsset: {fileID: 0}
  m_GameObject: {fileID: 7919529504181554283}
  m_LocalRotation: {x: 0, y: 0, z: 0, w: 1}
  m_LocalPosition: {x: 0, y: 0, z: 0}
  m_LocalScale: {x: 1, y: 1, z: 1}
  m_Children:
  - {fileID: 3723195960513240427}
  m_Father: {fileID: 0}
  m_RootOrder: 0
  m_LocalEulerAnglesHint: {x: 0, y: 0, z: 0}
--- !u!156049354 &1783375737126093152
Grid:
  m_ObjectHideFlags: 0
  m_CorrespondingSourceObject: {fileID: 0}
  m_PrefabInstance: {fileID: 0}
  m_PrefabAsset: {fileID: 0}
  m_GameObject: {fileID: 7919529504181554283}
  m_Enabled: 1
  m_CellSize: {x: 1, y: 1, z: 0}
  m_CellGap: {x: 0, y: 0, z: 0}
  m_CellLayout: 0
  m_CellSwizzle: 0
--- !u!114 &2267114675494748531
MonoBehaviour:
  m_ObjectHideFlags: 0
  m_CorrespondingSourceObject: {fileID: 0}
  m_PrefabInstance: {fileID: 0}
  m_PrefabAsset: {fileID: 0}
  m_GameObject: {fileID: 0}
  m_Enabled: 1
  m_EditorHideFlags: 0
  m_Script: {fileID: 12395, guid: 0000000000000000e000000000000000, type: 0}
  m_Name: Palette Settings
  m_EditorClassIdentifier: 
  cellSizing: 0
